<svg width="29" height="28" viewBox="0 0 29 28" fill="none" xmlns="http://www.w3.org/2000/svg">
<mask id="mask0_3509_3208" style="mask-type:alpha" maskUnits="userSpaceOnUse" x="0" y="0" width="29" height="28">
<rect x="0.0693359" width="28" height="28" fill="#D9D9D9"/>
</mask>
<g mask="url(#mask0_3509_3208)">
<path d="M6.8945 19.95C7.88617 19.1917 8.9945 18.5938 10.2195 18.1563C11.4445 17.7188 12.7278 17.5 14.0695 17.5C15.4112 17.5 16.6945 17.7188 17.9195 18.1563C19.1445 18.5938 20.2528 19.1917 21.2445 19.95C21.9251 19.1528 22.4549 18.2487 22.8341 17.2375C23.2133 16.2264 23.4028 15.1473 23.4028 14C23.4028 11.4139 22.4938 9.21185 20.6758 7.39379C18.8577 5.57574 16.6556 4.66671 14.0695 4.66671C11.4834 4.66671 9.2813 5.57574 7.46325 7.39379C5.64519 9.21185 4.73617 11.4139 4.73617 14C4.73617 15.1473 4.92575 16.2264 5.30492 17.2375C5.68408 18.2487 6.21394 19.1528 6.8945 19.95ZM14.0695 15.1667C12.9223 15.1667 11.9549 14.773 11.1674 13.9855C10.3799 13.198 9.98617 12.2306 9.98617 11.0834C9.98617 9.93615 10.3799 8.96879 11.1674 8.18129C11.9549 7.39379 12.9223 7.00004 14.0695 7.00004C15.2167 7.00004 16.1841 7.39379 16.9716 8.18129C17.7591 8.96879 18.1528 9.93615 18.1528 11.0834C18.1528 12.2306 17.7591 13.198 16.9716 13.9855C16.1841 14.773 15.2167 15.1667 14.0695 15.1667ZM14.0695 25.6667C12.4556 25.6667 10.9389 25.3605 9.5195 24.748C8.10005 24.1355 6.86533 23.3042 5.81533 22.2542C4.76533 21.2042 3.93408 19.9695 3.32158 18.55C2.70908 17.1306 2.40283 15.6139 2.40283 14C2.40283 12.3862 2.70908 10.8695 3.32158 9.45004C3.93408 8.0306 4.76533 6.79587 5.81533 5.74587C6.86533 4.69587 8.10005 3.86462 9.5195 3.25212C10.9389 2.63962 12.4556 2.33337 14.0695 2.33337C15.6834 2.33337 17.2001 2.63962 18.6195 3.25212C20.0389 3.86462 21.2737 4.69587 22.3237 5.74587C23.3737 6.79587 24.2049 8.0306 24.8174 9.45004C25.4299 10.8695 25.7362 12.3862 25.7362 14C25.7362 15.6139 25.4299 17.1306 24.8174 18.55C24.2049 19.9695 23.3737 21.2042 22.3237 22.2542C21.2737 23.3042 20.0389 24.1355 18.6195 24.748C17.2001 25.3605 15.6834 25.6667 14.0695 25.6667Z" fill="#26AF60"/>
</g>
</svg>
