<svg width="78" height="79" viewBox="0 0 98 99" fill="none" xmlns="http://www.w3.org/2000/svg">
<circle cx="11" cy="10" r="5.9" fill="#3055C7" stroke="#D1D1D1" stroke-width="0.2"/>
<circle cx="85" cy="94" r="4.9" fill="#3055C7" stroke="#D1D1D1" stroke-width="0.2"/>
<circle cx="3.5" cy="24.5" r="2.4" fill="#8FD2F8" stroke="#D1D1D1" stroke-width="0.2"/>
<circle cx="80.5" cy="2.5" r="2.4" fill="#8FD2F8" stroke="#D1D1D1" stroke-width="0.2"/>
<circle cx="95.5" cy="22.5" r="2.4" fill="#8FD2F8" stroke="#D1D1D1" stroke-width="0.2"/>
<circle cx="95.5" cy="79.5" r="2.4" fill="#8FD2F8" stroke="#D1D1D1" stroke-width="0.2"/>
<circle cx="16.5" cy="96.5" r="2.4" fill="#8FD2F8" stroke="#D1D1D1" stroke-width="0.2"/>
<circle cx="2.5" cy="79.5" r="2.4" fill="#8FD2F8" stroke="#D1D1D1" stroke-width="0.2"/>
<mask id="path-9-inside-1_2422_5600" fill="white">
<path d="M95 51C95 75.8528 74.8528 96 50 96C25.1472 96 5 75.8528 5 51C5 26.1472 25.1472 6 50 6C74.8528 6 95 26.1472 95 51ZM18.0474 51C18.0474 68.6469 32.3531 82.9526 50 82.9526C67.6469 82.9526 81.9526 68.6469 81.9526 51C81.9526 33.3531 67.6469 19.0474 50 19.0474C32.3531 19.0474 18.0474 33.3531 18.0474 51Z"/>
</mask>
<path d="M95 51C95 75.8528 74.8528 96 50 96C25.1472 96 5 75.8528 5 51C5 26.1472 25.1472 6 50 6C74.8528 6 95 26.1472 95 51ZM18.0474 51C18.0474 68.6469 32.3531 82.9526 50 82.9526C67.6469 82.9526 81.9526 68.6469 81.9526 51C81.9526 33.3531 67.6469 19.0474 50 19.0474C32.3531 19.0474 18.0474 33.3531 18.0474 51Z" fill="#FFD501" stroke="#D8E0E8" mask="url(#path-9-inside-1_2422_5600)"/>
<path d="M65.3436 48.6196L44.5 69L33.7352 58.2352C32.6785 57.1785 32.3369 55.6016 32.8616 54.2023C33.2654 53.1256 34.1338 52.2887 35.2248 51.9251L35.5661 51.8113C37.0775 51.3075 38.7423 51.6281 39.9585 52.6572L44.5 56.5L59.9953 41.4604C60.9373 40.5461 62.2689 40.1538 63.5562 40.4112C65.2995 40.7599 66.6017 42.2201 66.7493 43.9918L66.8076 44.6914C66.9295 46.1535 66.3927 47.5938 65.3436 48.6196Z" fill="#0AC964" stroke="#69C28F"/>
<path d="M24.5 52V52C23.1474 39.0152 33.0675 27.5975 46.1139 27.1231L49.5 27V19" stroke="#D8E0E8" stroke-width="4"/>
<path d="M74 50V50C75.3526 62.9848 65.4325 74.4025 52.3861 74.8769L49 75V83" stroke="#D8E0E8" stroke-width="4"/>
</svg>
