<svg width="17" height="20" viewBox="0 0 17 20" fill="none" xmlns="http://www.w3.org/2000/svg">
<path d="M1.14258 18.5716H15.714M11.4283 1.42871L14.8569 4.85728L5.42829 14.2859H1.99972V10.8573L11.4283 1.42871Z" stroke="white" stroke-linecap="round" stroke-linejoin="round"/>
</svg>
